module webapp

go 1.22

toolchain go1.22.11

require (
	dario.cat/mergo v1.0.1 // indirect
	github.com/Azure/go-ansiterm v0.0.0-20250102033503-faa5f7b0171c // indirect
	github.com/Microsoft/go-winio v0.6.2 // indirect
	github.com/Nvveen/Gotty v0.0.0-20120604004816-cd527374f1e5 // indirect
	github.com/alexedwards/scs/v2 v2.8.0 // indirect
	github.com/cenkalti/backoff/v4 v4.3.0 // indirect
	github.com/containerd/continuity v0.4.5 // indirect
	github.com/docker/cli v27.5.1+incompatible // indirect
	github.com/docker/docker v27.5.1+incompatible // indirect
	github.com/docker/go-connections v0.5.0 // indirect
	github.com/docker/go-units v0.5.0 // indirect
	github.com/go-chi/chi/v5 v5.1.0 // indirect
	github.com/go-viper/mapstructure/v2 v2.2.1 // indirect
	github.com/gogo/protobuf v1.3.2 // indirect
	github.com/golang-jwt/jwt/v4 v4.5.1 // indirect
	github.com/google/shlex v0.0.0-20191202100458-e7afc7fbc510 // indirect
	github.com/jackc/chunkreader/v2 v2.0.1 // indirect
	github.com/jackc/pgconn v1.14.3 // indirect
	github.com/jackc/pgio v1.0.0 // indirect
	github.com/jackc/pgpassfile v1.0.0 // indirect
	github.com/jackc/pgproto3/v2 v2.3.3 // indirect
	github.com/jackc/pgservicefile v0.0.0-20221227161230-091c0ba34f0a // indirect
	github.com/jackc/pgtype v1.14.0 // indirect
	github.com/jackc/pgx/v4 v4.18.3 // indirect
	github.com/mitchellh/mapstructure v1.5.0 // indirect
	github.com/moby/docker-image-spec v1.3.1 // indirect
	github.com/moby/sys/user v0.3.0 // indirect
	github.com/moby/term v0.5.2 // indirect
	github.com/opencontainers/go-digest v1.0.0 // indirect
	github.com/opencontainers/image-spec v1.1.0 // indirect
	github.com/opencontainers/runc v1.2.4 // indirect
	github.com/ory/dockertest/v3 v3.11.0 // indirect
	github.com/pkg/errors v0.9.1 // indirect
	github.com/sirupsen/logrus v1.9.3 // indirect
	github.com/xeipuuv/gojsonpointer v0.0.0-20190905194746-02993c407bfb // indirect
	github.com/xeipuuv/gojsonreference v0.0.0-20180127040603-bd5ef7bd5415 // indirect
	github.com/xeipuuv/gojsonschema v1.2.0 // indirect
	golang.org/x/crypto v0.20.0 // indirect
	golang.org/x/sys v0.29.0 // indirect
	golang.org/x/text v0.14.0 // indirect
	gopkg.in/yaml.v2 v2.4.0 // indirect
)
